Applicable At,Applicable For,Data Item,Value,Generated Time,Quality Indicator
"11/07/2021 10:30:11","11/07/2021","Calorific Value, LDZ(EA)","39.5000","11/07/2021 10:36:57",""
"11/07/2021 10:30:11","10/07/2021","Calorific Value, LDZ(EA)","39.4000","11/07/2021 10:36:57",""
"10/07/2021 10:30:10","10/07/2021","Calorific Value, LDZ(EA)","39.5000","10/07/2021 10:36:46",""
"10/07/2021 10:30:10","09/07/2021","Calorific Value, LDZ(EA)","39.5000","10/07/2021 10:36:46",""
"09/07/2021 10:30:09","09/07/2021","Calorific Value, LDZ(EA)","39.6000","09/07/2021 10:34:54",""
"09/07/2021 10:30:09","08/07/2021","Calorific Value, LDZ(EA)","39.4000","09/07/2021 10:34:54",""
"08/07/2021 10:30:09","08/07/2021","Calorific Value, LDZ(EA)","39.7000","08/07/2021 10:34:08",""
"08/07/2021 10:30:09","07/07/2021","Calorific Value, LDZ(EA)","39.0000","08/07/2021 10:34:08",""
"07/07/2021 10:30:23","07/07/2021","Calorific Value, LDZ(EA)","39.5000","07/07/2021 10:34:53",""
"07/07/2021 10:30:23","06/07/2021","Calorific Value, LDZ(EA)","39.1000","07/07/2021 10:34:53",""
"06/07/2021 10:30:21","06/07/2021","Calorific Value, LDZ(EA)","39.2000","06/07/2021 10:35:09",""
"06/07/2021 10:30:21","05/07/2021","Calorific Value, LDZ(EA)","39.0000","06/07/2021 10:35:09",""
"05/07/2021 10:30:08","05/07/2021","Calorific Value, LDZ(EA)","38.4000","05/07/2021 10:34:30",""
"05/07/2021 10:30:08","04/07/2021","Calorific Value, LDZ(EA)","39.0000","05/07/2021 10:34:30",""
"04/07/2021 10:30:08","04/07/2021","Calorific Value, LDZ(EA)","38.9000","04/07/2021 10:33:58",""
"04/07/2021 10:30:08","03/07/2021","Calorific Value, LDZ(EA)","39.0000","04/07/2021 10:33:58",""
"03/07/2021 16:00:08","02/07/2021","Calorific Value, LDZ(EA)","38.3000","03/07/2021 16:03:26",""
"03/07/2021 10:30:15","03/07/2021","Calorific Value, LDZ(EA)","39.0000","03/07/2021 10:34:11",""
"03/07/2021 10:30:15","02/07/2021","Calorific Value, LDZ(EA)","38.4000","03/07/2021 10:34:11",""
"02/07/2021 10:30:23","02/07/2021","Calorific Value, LDZ(EA)","38.2000","02/07/2021 10:33:56",""
"02/07/2021 10:30:23","01/07/2021","Calorific Value, LDZ(EA)","38.9000","02/07/2021 10:33:56",""
"01/07/2021 10:30:20","01/07/2021","Calorific Value, LDZ(EA)","39.0000","01/07/2021 10:33:36",""
"01/07/2021 10:30:20","30/06/2021","Calorific Value, LDZ(EA)","38.6000","01/07/2021 10:33:36",""
"30/06/2021 10:30:16","30/06/2021","Calorific Value, LDZ(EA)","39.0000","30/06/2021 10:33:52",""
"30/06/2021 10:30:16","29/06/2021","Calorific Value, LDZ(EA)","39.0000","30/06/2021 10:33:52",""
"29/06/2021 10:30:08","29/06/2021","Calorific Value, LDZ(EA)","39.0000","29/06/2021 10:33:39",""
"29/06/2021 10:30:08","28/06/2021","Calorific Value, LDZ(EA)","39.1000","29/06/2021 10:33:39",""
"28/06/2021 10:30:15","28/06/2021","Calorific Value, LDZ(EA)","39.0000","28/06/2021 10:33:17",""
"28/06/2021 10:30:15","27/06/2021","Calorific Value, LDZ(EA)","38.3000","28/06/2021 10:33:17",""
"27/06/2021 10:30:18","27/06/2021","Calorific Value, LDZ(EA)","38.4000","27/06/2021 10:34:19",""
"27/06/2021 10:30:18","26/06/2021","Calorific Value, LDZ(EA)","38.3000","27/06/2021 10:34:19",""
"26/06/2021 10:30:14","26/06/2021","Calorific Value, LDZ(EA)","38.6000","26/06/2021 10:33:24",""
"26/06/2021 10:30:14","25/06/2021","Calorific Value, LDZ(EA)","38.4000","26/06/2021 10:33:24",""
"25/06/2021 10:30:21","25/06/2021","Calorific Value, LDZ(EA)","38.5000","25/06/2021 10:33:53",""
"25/06/2021 10:30:21","24/06/2021","Calorific Value, LDZ(EA)","38.6000","25/06/2021 10:33:53",""
"24/06/2021 10:30:11","24/06/2021","Calorific Value, LDZ(EA)","38.3000","24/06/2021 10:33:34",""
"24/06/2021 10:30:11","23/06/2021","Calorific Value, LDZ(EA)","38.8000","24/06/2021 10:33:34",""
"23/06/2021 10:30:19","23/06/2021","Calorific Value, LDZ(EA)","38.4000","23/06/2021 10:33:40",""
"23/06/2021 10:30:19","22/06/2021","Calorific Value, LDZ(EA)","38.9000","23/06/2021 10:33:40",""
"22/06/2021 10:30:09","22/06/2021","Calorific Value, LDZ(EA)","39.2000","22/06/2021 10:33:54",""
"22/06/2021 10:30:09","21/06/2021","Calorific Value, LDZ(EA)","38.9000","22/06/2021 10:33:54",""
"21/06/2021 10:30:22","21/06/2021","Calorific Value, LDZ(EA)","38.9000","21/06/2021 10:33:50",""
"21/06/2021 10:30:22","20/06/2021","Calorific Value, LDZ(EA)","39.1000","21/06/2021 10:33:50",""
"20/06/2021 10:30:19","20/06/2021","Calorific Value, LDZ(EA)","39.1000","20/06/2021 10:33:30",""
"20/06/2021 10:30:19","19/06/2021","Calorific Value, LDZ(EA)","38.9000","20/06/2021 10:33:30",""
"19/06/2021 16:00:13","18/06/2021","Calorific Value, LDZ(EA)","38.8000","19/06/2021 16:03:01",""
"19/06/2021 10:30:11","19/06/2021","Calorific Value, LDZ(EA)","38.9000","19/06/2021 10:32:58",""
"19/06/2021 10:30:11","18/06/2021","Calorific Value, LDZ(EA)","39.1000","19/06/2021 10:32:58",""
"18/06/2021 10:30:11","18/06/2021","Calorific Value, LDZ(EA)","39.1000","18/06/2021 10:33:31",""
"18/06/2021 10:30:11","17/06/2021","Calorific Value, LDZ(EA)","39.0000","18/06/2021 10:33:31",""
"17/06/2021 10:30:10","17/06/2021","Calorific Value, LDZ(EA)","38.9000","17/06/2021 10:33:05",""
"17/06/2021 10:30:10","16/06/2021","Calorific Value, LDZ(EA)","39.0000","17/06/2021 10:33:05",""
"16/06/2021 10:30:15","16/06/2021","Calorific Value, LDZ(EA)","39.0000","16/06/2021 10:33:23",""
"16/06/2021 10:30:15","15/06/2021","Calorific Value, LDZ(EA)","39.1000","16/06/2021 10:33:23",""
"15/06/2021 10:30:08","15/06/2021","Calorific Value, LDZ(EA)","39.4000","15/06/2021 10:33:18",""
"15/06/2021 10:30:08","14/06/2021","Calorific Value, LDZ(EA)","39.3000","15/06/2021 10:33:18",""
"14/06/2021 10:30:14","14/06/2021","Calorific Value, LDZ(EA)","39.2000","14/06/2021 10:33:25",""
"14/06/2021 10:30:14","13/06/2021","Calorific Value, LDZ(EA)","39.2000","14/06/2021 10:33:25",""
"13/06/2021 10:30:09","13/06/2021","Calorific Value, LDZ(EA)","39.3000","13/06/2021 10:32:57",""
"13/06/2021 10:30:09","12/06/2021","Calorific Value, LDZ(EA)","39.3000","13/06/2021 10:32:57",""
"12/06/2021 10:30:18","12/06/2021","Calorific Value, LDZ(EA)","39.3000","12/06/2021 10:33:30",""
"12/06/2021 10:30:18","11/06/2021","Calorific Value, LDZ(EA)","38.9000","12/06/2021 10:33:30",""
"11/06/2021 10:30:31","11/06/2021","Calorific Value, LDZ(EA)","39.1000","11/06/2021 10:33:30",""
"11/06/2021 10:30:31","10/06/2021","Calorific Value, LDZ(EA)","39.1000","11/06/2021 10:33:30",""
"10/06/2021 10:30:22","10/06/2021","Calorific Value, LDZ(EA)","39.1000","10/06/2021 10:33:53",""
"10/06/2021 10:30:22","09/06/2021","Calorific Value, LDZ(EA)","38.9000","10/06/2021 10:33:53",""
"09/06/2021 10:30:19","09/06/2021","Calorific Value, LDZ(EA)","38.8000","09/06/2021 10:34:13",""
"09/06/2021 10:30:19","08/06/2021","Calorific Value, LDZ(EA)","38.9000","09/06/2021 10:34:13",""
"08/06/2021 10:30:14","08/06/2021","Calorific Value, LDZ(EA)","38.9000","08/06/2021 10:33:35",""
"08/06/2021 10:30:14","07/06/2021","Calorific Value, LDZ(EA)","38.9000","08/06/2021 10:33:35",""
"07/06/2021 10:30:06","07/06/2021","Calorific Value, LDZ(EA)","39.1000","07/06/2021 10:33:35",""
"07/06/2021 10:30:06","06/06/2021","Calorific Value, LDZ(EA)","39.1000","07/06/2021 10:33:35",""
"06/06/2021 10:30:17","06/06/2021","Calorific Value, LDZ(EA)","39.2000","06/06/2021 10:33:33",""
"06/06/2021 10:30:17","05/06/2021","Calorific Value, LDZ(EA)","39.1000","06/06/2021 10:33:33",""
"05/06/2021 10:30:13","05/06/2021","Calorific Value, LDZ(EA)","39.2000","05/06/2021 10:33:21",""
"05/06/2021 10:30:13","04/06/2021","Calorific Value, LDZ(EA)","39.2000","05/06/2021 10:33:21",""
"04/06/2021 10:30:12","04/06/2021","Calorific Value, LDZ(EA)","39.1000","04/06/2021 10:33:33",""
"04/06/2021 10:30:12","03/06/2021","Calorific Value, LDZ(EA)","39.1000","04/06/2021 10:33:33",""
"03/06/2021 10:30:13","03/06/2021","Calorific Value, LDZ(EA)","39.2000","03/06/2021 10:33:30",""
"03/06/2021 10:30:13","02/06/2021","Calorific Value, LDZ(EA)","39.1000","03/06/2021 10:33:30",""
"02/06/2021 10:30:18","02/06/2021","Calorific Value, LDZ(EA)","39.1000","02/06/2021 10:33:14",""
"02/06/2021 10:30:18","01/06/2021","Calorific Value, LDZ(EA)","39.4000","02/06/2021 10:33:14",""
"01/06/2021 10:30:27","01/06/2021","Calorific Value, LDZ(EA)","39.1000","01/06/2021 10:33:41",""
"01/06/2021 10:30:27","31/05/2021","Calorific Value, LDZ(EA)","39.1000","01/06/2021 10:33:41",""
"31/05/2021 10:30:16","31/05/2021","Calorific Value, LDZ(EA)","39.1000","31/05/2021 10:33:17",""
"31/05/2021 10:30:16","30/05/2021","Calorific Value, LDZ(EA)","39.1000","31/05/2021 10:33:17",""
"30/05/2021 10:30:21","30/05/2021","Calorific Value, LDZ(EA)","39.1000","30/05/2021 10:33:26",""
"30/05/2021 10:30:21","29/05/2021","Calorific Value, LDZ(EA)","39.1000","30/05/2021 10:33:26",""
"29/05/2021 10:30:15","29/05/2021","Calorific Value, LDZ(EA)","39.1000","29/05/2021 10:33:22",""
"29/05/2021 10:30:15","28/05/2021","Calorific Value, LDZ(EA)","38.9000","29/05/2021 10:33:22",""
"28/05/2021 10:30:16","28/05/2021","Calorific Value, LDZ(EA)","38.9000","28/05/2021 10:34:03",""
"28/05/2021 10:30:16","27/05/2021","Calorific Value, LDZ(EA)","39.0000","28/05/2021 10:34:03",""
"27/05/2021 10:30:21","27/05/2021","Calorific Value, LDZ(EA)","38.9000","27/05/2021 10:33:58",""
"27/05/2021 10:30:21","26/05/2021","Calorific Value, LDZ(EA)","38.9000","27/05/2021 10:33:58",""
"26/05/2021 10:30:10","26/05/2021","Calorific Value, LDZ(EA)","39.0000","26/05/2021 10:33:03",""
"26/05/2021 10:30:10","25/05/2021","Calorific Value, LDZ(EA)","38.7000","26/05/2021 10:33:03",""
"25/05/2021 10:30:06","25/05/2021","Calorific Value, LDZ(EA)","38.5000","25/05/2021 10:33:20",""
"25/05/2021 10:30:06","24/05/2021","Calorific Value, LDZ(EA)","38.7000","25/05/2021 10:33:20",""
"24/05/2021 10:30:11","24/05/2021","Calorific Value, LDZ(EA)","38.8000","24/05/2021 10:32:47",""
"24/05/2021 10:30:11","23/05/2021","Calorific Value, LDZ(EA)","38.8000","24/05/2021 10:32:47",""
"23/05/2021 10:30:11","23/05/2021","Calorific Value, LDZ(EA)","38.7000","23/05/2021 10:33:29",""
"23/05/2021 10:30:11","22/05/2021","Calorific Value, LDZ(EA)","39.1000","23/05/2021 10:33:29",""
"22/05/2021 10:30:15","22/05/2021","Calorific Value, LDZ(EA)","39.2000","22/05/2021 10:33:11",""
"22/05/2021 10:30:15","21/05/2021","Calorific Value, LDZ(EA)","39.2000","22/05/2021 10:33:11",""
"21/05/2021 10:30:21","21/05/2021","Calorific Value, LDZ(EA)","39.2000","21/05/2021 10:33:42",""
"21/05/2021 10:30:21","20/05/2021","Calorific Value, LDZ(EA)","39.2000","21/05/2021 10:33:42",""
"20/05/2021 10:30:08","20/05/2021","Calorific Value, LDZ(EA)","39.2000","20/05/2021 10:33:22",""
"20/05/2021 10:30:08","19/05/2021","Calorific Value, LDZ(EA)","39.2000","20/05/2021 10:33:22",""
"19/05/2021 10:30:15","19/05/2021","Calorific Value, LDZ(EA)","39.3000","19/05/2021 10:33:34",""
"19/05/2021 10:30:15","18/05/2021","Calorific Value, LDZ(EA)","39.3000","19/05/2021 10:33:34",""
"18/05/2021 10:30:29","18/05/2021","Calorific Value, LDZ(EA)","39.2000","18/05/2021 10:37:40",""
"18/05/2021 10:30:29","17/05/2021","Calorific Value, LDZ(EA)","39.3000","18/05/2021 10:37:40",""
"17/05/2021 10:30:27","17/05/2021","Calorific Value, LDZ(EA)","39.3000","17/05/2021 10:37:27",""
"17/05/2021 10:30:27","16/05/2021","Calorific Value, LDZ(EA)","39.4000","17/05/2021 10:37:27",""
"16/05/2021 10:30:24","16/05/2021","Calorific Value, LDZ(EA)","39.3000","16/05/2021 10:37:51",""
"16/05/2021 10:30:24","15/05/2021","Calorific Value, LDZ(EA)","39.3000","16/05/2021 10:37:51",""
"15/05/2021 10:30:21","15/05/2021","Calorific Value, LDZ(EA)","39.0000","15/05/2021 10:37:39",""
"15/05/2021 10:30:21","14/05/2021","Calorific Value, LDZ(EA)","39.1000","15/05/2021 10:37:39",""
"14/05/2021 10:30:24","14/05/2021","Calorific Value, LDZ(EA)","39.4000","14/05/2021 10:37:43",""
"14/05/2021 10:30:24","13/05/2021","Calorific Value, LDZ(EA)","39.3000","14/05/2021 10:37:43",""
"13/05/2021 10:30:21","13/05/2021","Calorific Value, LDZ(EA)","39.2000","13/05/2021 10:35:02",""
"13/05/2021 10:30:21","12/05/2021","Calorific Value, LDZ(EA)","39.3000","13/05/2021 10:35:02",""
"12/05/2021 10:30:26","12/05/2021","Calorific Value, LDZ(EA)","39.3000","12/05/2021 10:37:49",""
"12/05/2021 10:30:26","11/05/2021","Calorific Value, LDZ(EA)","39.2000","12/05/2021 10:37:49",""
"11/05/2021 10:30:17","11/05/2021","Calorific Value, LDZ(EA)","39.2000","11/05/2021 10:35:03",""
"11/05/2021 10:30:17","10/05/2021","Calorific Value, LDZ(EA)","39.2000","11/05/2021 10:35:03",""
"10/05/2021 10:30:15","10/05/2021","Calorific Value, LDZ(EA)","39.2000","10/05/2021 10:35:29",""
"10/05/2021 10:30:15","09/05/2021","Calorific Value, LDZ(EA)","39.2000","10/05/2021 10:35:29",""
"09/05/2021 10:30:23","09/05/2021","Calorific Value, LDZ(EA)","39.2000","09/05/2021 10:34:42",""
"09/05/2021 10:30:23","08/05/2021","Calorific Value, LDZ(EA)","39.2000","09/05/2021 10:34:42",""
"08/05/2021 10:30:15","08/05/2021","Calorific Value, LDZ(EA)","39.1000","08/05/2021 10:34:20",""
"08/05/2021 10:30:15","07/05/2021","Calorific Value, LDZ(EA)","39.2000","08/05/2021 10:34:20",""
"07/05/2021 10:30:25","07/05/2021","Calorific Value, LDZ(EA)","39.2000","07/05/2021 10:36:04",""
"07/05/2021 10:30:25","06/05/2021","Calorific Value, LDZ(EA)","39.2000","07/05/2021 10:36:04",""
"06/05/2021 10:30:14","06/05/2021","Calorific Value, LDZ(EA)","39.1000","06/05/2021 10:34:07",""
"06/05/2021 10:30:14","05/05/2021","Calorific Value, LDZ(EA)","39.2000","06/05/2021 10:34:07",""
"05/05/2021 10:30:22","05/05/2021","Calorific Value, LDZ(EA)","39.2000","05/05/2021 10:36:16",""
"05/05/2021 10:30:22","04/05/2021","Calorific Value, LDZ(EA)","39.2000","05/05/2021 10:36:16",""
"04/05/2021 10:30:12","04/05/2021","Calorific Value, LDZ(EA)","39.2000","04/05/2021 10:34:33",""
"04/05/2021 10:30:12","03/05/2021","Calorific Value, LDZ(EA)","39.3000","04/05/2021 10:34:33",""
"03/05/2021 10:30:26","03/05/2021","Calorific Value, LDZ(EA)","39.4000","03/05/2021 10:34:15",""
"03/05/2021 10:30:26","02/05/2021","Calorific Value, LDZ(EA)","39.4000","03/05/2021 10:34:15",""
"02/05/2021 10:30:23","02/05/2021","Calorific Value, LDZ(EA)","39.4000","02/05/2021 10:34:13",""
"02/05/2021 10:30:23","01/05/2021","Calorific Value, LDZ(EA)","39.2000","02/05/2021 10:34:13",""
"01/05/2021 10:30:17","01/05/2021","Calorific Value, LDZ(EA)","39.1000","01/05/2021 10:34:24",""
"01/05/2021 10:30:17","30/04/2021","Calorific Value, LDZ(EA)","39.1000","01/05/2021 10:34:24",""
"30/04/2021 10:30:15","30/04/2021","Calorific Value, LDZ(EA)","39.3000","30/04/2021 10:36:20",""
"30/04/2021 10:30:15","29/04/2021","Calorific Value, LDZ(EA)","39.3000","30/04/2021 10:36:20",""
"29/04/2021 10:30:14","29/04/2021","Calorific Value, LDZ(EA)","38.8000","29/04/2021 10:34:15",""
"29/04/2021 10:30:14","28/04/2021","Calorific Value, LDZ(EA)","38.9000","29/04/2021 10:34:15",""
"28/04/2021 10:30:22","28/04/2021","Calorific Value, LDZ(EA)","39.1000","28/04/2021 10:33:53",""
"28/04/2021 10:30:22","27/04/2021","Calorific Value, LDZ(EA)","39.1000","28/04/2021 10:33:53",""
"27/04/2021 10:30:24","27/04/2021","Calorific Value, LDZ(EA)","39.0000","27/04/2021 10:35:12",""
"27/04/2021 10:30:24","26/04/2021","Calorific Value, LDZ(EA)","39.0000","27/04/2021 10:35:12",""
"26/04/2021 10:30:22","26/04/2021","Calorific Value, LDZ(EA)","39.1000","26/04/2021 10:33:38",""
"26/04/2021 10:30:22","25/04/2021","Calorific Value, LDZ(EA)","39.1000","26/04/2021 10:33:38",""
"25/04/2021 10:30:14","25/04/2021","Calorific Value, LDZ(EA)","39.3000","25/04/2021 10:33:34",""
"25/04/2021 10:30:14","24/04/2021","Calorific Value, LDZ(EA)","39.3000","25/04/2021 10:33:34",""
"24/04/2021 10:30:18","24/04/2021","Calorific Value, LDZ(EA)","39.3000","24/04/2021 10:33:33",""
"24/04/2021 10:30:18","23/04/2021","Calorific Value, LDZ(EA)","39.2000","24/04/2021 10:33:33",""
"23/04/2021 10:30:12","23/04/2021","Calorific Value, LDZ(EA)","39.1000","23/04/2021 10:34:03",""
"23/04/2021 10:30:12","22/04/2021","Calorific Value, LDZ(EA)","39.2000","23/04/2021 10:34:03",""
"22/04/2021 10:30:13","22/04/2021","Calorific Value, LDZ(EA)","39.4000","22/04/2021 10:33:10",""
"22/04/2021 10:30:13","21/04/2021","Calorific Value, LDZ(EA)","39.3000","22/04/2021 10:33:10",""
"21/04/2021 10:30:15","21/04/2021","Calorific Value, LDZ(EA)","39.3000","21/04/2021 10:33:21",""
"21/04/2021 10:30:15","20/04/2021","Calorific Value, LDZ(EA)","39.2000","21/04/2021 10:33:21",""
"20/04/2021 10:30:15","20/04/2021","Calorific Value, LDZ(EA)","39.0000","20/04/2021 10:33:32",""
"20/04/2021 10:30:15","19/04/2021","Calorific Value, LDZ(EA)","39.0000","20/04/2021 10:33:32",""
"19/04/2021 10:30:25","19/04/2021","Calorific Value, LDZ(EA)","38.9000","19/04/2021 10:34:15",""
"19/04/2021 10:30:25","18/04/2021","Calorific Value, LDZ(EA)","39.0000","19/04/2021 10:34:15",""
"18/04/2021 10:30:22","18/04/2021","Calorific Value, LDZ(EA)","38.9000","18/04/2021 10:33:21",""
"18/04/2021 10:30:22","17/04/2021","Calorific Value, LDZ(EA)","38.9000","18/04/2021 10:33:21",""
"17/04/2021 10:30:22","17/04/2021","Calorific Value, LDZ(EA)","38.8000","17/04/2021 10:33:39",""
"17/04/2021 10:30:22","16/04/2021","Calorific Value, LDZ(EA)","38.9000","17/04/2021 10:33:39",""
"16/04/2021 10:30:23","16/04/2021","Calorific Value, LDZ(EA)","38.8000","16/04/2021 10:34:16",""
"16/04/2021 10:30:23","15/04/2021","Calorific Value, LDZ(EA)","38.8000","16/04/2021 10:34:16",""
"15/04/2021 10:30:11","15/04/2021","Calorific Value, LDZ(EA)","38.8000","15/04/2021 10:33:19",""
"15/04/2021 10:30:11","14/04/2021","Calorific Value, LDZ(EA)","38.8000","15/04/2021 10:33:19",""
"14/04/2021 10:30:22","14/04/2021","Calorific Value, LDZ(EA)","38.7000","14/04/2021 10:33:36",""
"14/04/2021 10:30:22","13/04/2021","Calorific Value, LDZ(EA)","38.7000","14/04/2021 10:33:36",""
"13/04/2021 10:30:19","13/04/2021","Calorific Value, LDZ(EA)","38.7000","13/04/2021 10:33:35",""
"13/04/2021 10:30:19","12/04/2021","Calorific Value, LDZ(EA)","38.8000","13/04/2021 10:33:35",""
"12/04/2021 10:30:23","12/04/2021","Calorific Value, LDZ(EA)","38.9000","12/04/2021 10:34:37",""
"12/04/2021 10:30:23","11/04/2021","Calorific Value, LDZ(EA)","39.0000","12/04/2021 10:34:37",""
"11/04/2021 10:30:17","11/04/2021","Calorific Value, LDZ(EA)","39.0000","11/04/2021 10:33:36",""
"11/04/2021 10:30:17","10/04/2021","Calorific Value, LDZ(EA)","38.9000","11/04/2021 10:33:36",""
"10/04/2021 10:30:18","10/04/2021","Calorific Value, LDZ(EA)","38.9000","10/04/2021 10:33:16",""
"10/04/2021 10:30:18","09/04/2021","Calorific Value, LDZ(EA)","38.9000","10/04/2021 10:33:16",""
"09/04/2021 10:30:12","09/04/2021","Calorific Value, LDZ(EA)","38.9000","09/04/2021 10:33:49",""
"09/04/2021 10:30:12","08/04/2021","Calorific Value, LDZ(EA)","38.9000","09/04/2021 10:33:49",""
"08/04/2021 10:30:24","08/04/2021","Calorific Value, LDZ(EA)","39.0000","08/04/2021 10:41:20",""
"08/04/2021 10:30:24","07/04/2021","Calorific Value, LDZ(EA)","39.0000","08/04/2021 10:41:20",""
"07/04/2021 10:30:12","07/04/2021","Calorific Value, LDZ(EA)","39.0000","07/04/2021 10:37:45",""
"07/04/2021 10:30:12","06/04/2021","Calorific Value, LDZ(EA)","38.9000","07/04/2021 10:37:45",""
"06/04/2021 10:30:20","06/04/2021","Calorific Value, LDZ(EA)","38.9000","06/04/2021 10:39:45",""
"06/04/2021 10:30:20","05/04/2021","Calorific Value, LDZ(EA)","38.9000","06/04/2021 10:39:45",""
"05/04/2021 10:30:16","05/04/2021","Calorific Value, LDZ(EA)","38.7000","05/04/2021 10:37:20",""
"05/04/2021 10:30:16","04/04/2021","Calorific Value, LDZ(EA)","38.7000","05/04/2021 10:37:20",""
"04/04/2021 10:30:16","04/04/2021","Calorific Value, LDZ(EA)","38.8000","04/04/2021 10:36:51",""
"04/04/2021 10:30:16","03/04/2021","Calorific Value, LDZ(EA)","38.8000","04/04/2021 10:36:51",""
"03/04/2021 10:30:21","03/04/2021","Calorific Value, LDZ(EA)","38.8000","03/04/2021 10:38:21",""
"03/04/2021 10:30:21","02/04/2021","Calorific Value, LDZ(EA)","38.9000","03/04/2021 10:38:21",""
"02/04/2021 10:30:22","02/04/2021","Calorific Value, LDZ(EA)","38.9000","02/04/2021 10:37:29",""
"02/04/2021 10:30:22","01/04/2021","Calorific Value, LDZ(EA)","38.9000","02/04/2021 10:37:29",""
"01/04/2021 10:30:11","01/04/2021","Calorific Value, LDZ(EA)","38.9000","01/04/2021 10:35:48",""
"01/04/2021 10:30:11","31/03/2021","Calorific Value, LDZ(EA)","38.9000","01/04/2021 10:35:48",""
"31/03/2021 10:30:13","31/03/2021","Calorific Value, LDZ(EA)","39.0000","31/03/2021 10:36:05",""
"31/03/2021 10:30:13","30/03/2021","Calorific Value, LDZ(EA)","38.9000","31/03/2021 10:36:05",""
"30/03/2021 10:30:20","30/03/2021","Calorific Value, LDZ(EA)","38.9000","30/03/2021 10:36:35",""
"30/03/2021 10:30:20","29/03/2021","Calorific Value, LDZ(EA)","38.8000","30/03/2021 10:36:35",""
"29/03/2021 10:30:17","29/03/2021","Calorific Value, LDZ(EA)","38.8000","29/03/2021 10:38:36",""
"29/03/2021 10:30:17","28/03/2021","Calorific Value, LDZ(EA)","39.1000","29/03/2021 10:38:36",""
"28/03/2021 10:30:11","28/03/2021","Calorific Value, LDZ(EA)","39.2000","28/03/2021 10:35:39",""
"28/03/2021 10:30:11","27/03/2021","Calorific Value, LDZ(EA)","39.2000","28/03/2021 10:35:39",""
"27/03/2021 10:30:19","27/03/2021","Calorific Value, LDZ(EA)","39.2000","27/03/2021 10:37:15",""
"27/03/2021 10:30:19","26/03/2021","Calorific Value, LDZ(EA)","39.2000","27/03/2021 10:37:15",""
"26/03/2021 10:30:10","26/03/2021","Calorific Value, LDZ(EA)","39.2000","26/03/2021 10:34:55",""
"26/03/2021 10:30:10","25/03/2021","Calorific Value, LDZ(EA)","39.2000","26/03/2021 10:34:55",""
"25/03/2021 10:30:13","25/03/2021","Calorific Value, LDZ(EA)","39.2000","25/03/2021 10:34:09",""
"25/03/2021 10:30:13","24/03/2021","Calorific Value, LDZ(EA)","39.1000","25/03/2021 10:34:09",""
"24/03/2021 10:30:15","24/03/2021","Calorific Value, LDZ(EA)","39.1000","24/03/2021 10:35:14",""
"24/03/2021 10:30:15","23/03/2021","Calorific Value, LDZ(EA)","39.1000","24/03/2021 10:35:14",""
"23/03/2021 10:30:20","23/03/2021","Calorific Value, LDZ(EA)","39.2000","23/03/2021 10:35:25",""
"23/03/2021 10:30:20","22/03/2021","Calorific Value, LDZ(EA)","39.2000","23/03/2021 10:35:25",""
"22/03/2021 10:30:09","22/03/2021","Calorific Value, LDZ(EA)","39.2000","22/03/2021 10:35:20",""
"22/03/2021 10:30:09","21/03/2021","Calorific Value, LDZ(EA)","39.2000","22/03/2021 10:35:20",""
"21/03/2021 10:30:21","21/03/2021","Calorific Value, LDZ(EA)","39.1000","21/03/2021 10:35:07",""
"21/03/2021 10:30:21","20/03/2021","Calorific Value, LDZ(EA)","39.1000","21/03/2021 10:35:07",""
"20/03/2021 10:30:17","20/03/2021","Calorific Value, LDZ(EA)","39.3000","20/03/2021 10:34:40",""
"20/03/2021 10:30:17","19/03/2021","Calorific Value, LDZ(EA)","39.2000","20/03/2021 10:34:40",""
"19/03/2021 10:30:19","19/03/2021","Calorific Value, LDZ(EA)","39.1000","19/03/2021 10:33:35",""
"19/03/2021 10:30:19","18/03/2021","Calorific Value, LDZ(EA)","39.1000","19/03/2021 10:33:35",""
"18/03/2021 10:30:13","18/03/2021","Calorific Value, LDZ(EA)","39.0000","18/03/2021 10:34:12",""
"18/03/2021 10:30:13","17/03/2021","Calorific Value, LDZ(EA)","39.2000","18/03/2021 10:34:12",""
"17/03/2021 10:30:19","17/03/2021","Calorific Value, LDZ(EA)","39.3000","17/03/2021 10:33:54",""
"17/03/2021 10:30:19","16/03/2021","Calorific Value, LDZ(EA)","39.3000","17/03/2021 10:33:54",""
"17/03/2021 10:30:00","16/03/2021","Calorific Value, LDZ(EA)","39.2000","23/04/2021 07:41:30",""
"16/03/2021 10:30:16","16/03/2021","Calorific Value, LDZ(EA)","39.2000","16/03/2021 10:34:09",""
"16/03/2021 10:30:16","15/03/2021","Calorific Value, LDZ(EA)","39.4000","16/03/2021 10:34:09",""
"16/03/2021 10:30:00","15/03/2021","Calorific Value, LDZ(EA)","39.2000","23/04/2021 07:40:45",""
"15/03/2021 16:00:07","14/03/2021","Calorific Value, LDZ(EA)","39.3000","15/03/2021 16:03:57",""
"15/03/2021 16:00:00","14/03/2021","Calorific Value, LDZ(EA)","39.2000","20/04/2021 13:55:55",""
"15/03/2021 10:30:18","15/03/2021","Calorific Value, LDZ(EA)","39.3000","15/03/2021 10:33:47",""
"15/03/2021 10:30:18","14/03/2021","Calorific Value, LDZ(EA)","39.1000","15/03/2021 10:33:47",""
"14/03/2021 10:30:11","14/03/2021","Calorific Value, LDZ(EA)","39.4000","14/03/2021 10:34:54",""
"14/03/2021 10:30:11","13/03/2021","Calorific Value, LDZ(EA)","39.3000","14/03/2021 10:34:54",""
"14/03/2021 10:30:00","13/03/2021","Calorific Value, LDZ(EA)","39.2000","20/04/2021 13:53:25",""
"13/03/2021 10:30:20","13/03/2021","Calorific Value, LDZ(EA)","39.4000","13/03/2021 10:34:33",""
"13/03/2021 10:30:20","12/03/2021","Calorific Value, LDZ(EA)","39.3000","13/03/2021 10:34:33",""
"13/03/2021 10:30:00","12/03/2021","Calorific Value, LDZ(EA)","39.2000","20/04/2021 13:47:10",""
"12/03/2021 10:30:11","12/03/2021","Calorific Value, LDZ(EA)","39.4000","12/03/2021 10:34:20",""
"12/03/2021 10:30:11","11/03/2021","Calorific Value, LDZ(EA)","39.4000","12/03/2021 10:34:20",""
"12/03/2021 10:30:00","11/03/2021","Calorific Value, LDZ(EA)","39.3000","23/04/2021 07:49:20",""
"12/03/2021 10:30:00","11/03/2021","Calorific Value, LDZ(EA)","39.2000","20/04/2021 13:46:26",""
"11/03/2021 10:30:08","11/03/2021","Calorific Value, LDZ(EA)","39.4000","11/03/2021 10:33:44",""
"11/03/2021 10:30:08","10/03/2021","Calorific Value, LDZ(EA)","39.3000","11/03/2021 10:33:44",""
"11/03/2021 10:30:00","10/03/2021","Calorific Value, LDZ(EA)","39.4000","23/04/2021 07:47:49",""
"11/03/2021 10:30:00","10/03/2021","Calorific Value, LDZ(EA)","38.2000","20/04/2021 13:45:36",""
"10/03/2021 10:30:19","10/03/2021","Calorific Value, LDZ(EA)","39.3000","10/03/2021 10:33:23",""
"10/03/2021 10:30:19","09/03/2021","Calorific Value, LDZ(EA)","39.3000","10/03/2021 10:33:23",""
"09/03/2021 10:30:12","09/03/2021","Calorific Value, LDZ(EA)","39.4000","09/03/2021 10:33:54",""
"09/03/2021 10:30:12","08/03/2021","Calorific Value, LDZ(EA)","39.3000","09/03/2021 10:33:54",""
"08/03/2021 10:30:22","08/03/2021","Calorific Value, LDZ(EA)","39.3000","08/03/2021 10:33:54",""
"08/03/2021 10:30:22","07/03/2021","Calorific Value, LDZ(EA)","39.4000","08/03/2021 10:33:54",""
"07/03/2021 10:30:17","07/03/2021","Calorific Value, LDZ(EA)","39.4000","07/03/2021 10:34:19",""
"07/03/2021 10:30:17","06/03/2021","Calorific Value, LDZ(EA)","39.3000","07/03/2021 10:34:19",""
"06/03/2021 10:30:20","06/03/2021","Calorific Value, LDZ(EA)","39.2000","06/03/2021 10:34:02",""
"06/03/2021 10:30:20","05/03/2021","Calorific Value, LDZ(EA)","39.4000","06/03/2021 10:34:02",""
"05/03/2021 10:30:13","05/03/2021","Calorific Value, LDZ(EA)","39.3000","05/03/2021 10:34:11",""
"05/03/2021 10:30:13","04/03/2021","Calorific Value, LDZ(EA)","39.4000","05/03/2021 10:34:11",""
"04/03/2021 10:30:19","04/03/2021","Calorific Value, LDZ(EA)","39.4000","04/03/2021 10:33:32",""
"04/03/2021 10:30:19","03/03/2021","Calorific Value, LDZ(EA)","39.4000","04/03/2021 10:33:32",""
"03/03/2021 10:30:12","03/03/2021","Calorific Value, LDZ(EA)","39.2000","03/03/2021 10:33:23",""
"03/03/2021 10:30:12","02/03/2021","Calorific Value, LDZ(EA)","39.2000","03/03/2021 10:33:23",""
"02/03/2021 10:30:14","02/03/2021","Calorific Value, LDZ(EA)","39.2000","02/03/2021 10:34:18",""
"02/03/2021 10:30:14","01/03/2021","Calorific Value, LDZ(EA)","39.3000","02/03/2021 10:34:18",""
"01/03/2021 10:30:13","01/03/2021","Calorific Value, LDZ(EA)","39.2000","01/03/2021 10:34:47",""
"01/03/2021 10:30:13","28/02/2021","Calorific Value, LDZ(EA)","39.3000","01/03/2021 10:34:47",""
"28/02/2021 10:30:14","28/02/2021","Calorific Value, LDZ(EA)","39.4000","28/02/2021 10:33:51",""
"28/02/2021 10:30:14","27/02/2021","Calorific Value, LDZ(EA)","39.3000","28/02/2021 10:33:51",""
"27/02/2021 10:30:18","27/02/2021","Calorific Value, LDZ(EA)","39.3000","27/02/2021 10:34:17",""
"27/02/2021 10:30:18","26/02/2021","Calorific Value, LDZ(EA)","39.3000","27/02/2021 10:34:17",""
"26/02/2021 16:00:10","25/02/2021","Calorific Value, LDZ(EA)","39.2000","26/02/2021 16:04:09",""
"26/02/2021 10:30:21","26/02/2021","Calorific Value, LDZ(EA)","39.0000","26/02/2021 10:33:26",""
"26/02/2021 10:30:21","25/02/2021","Calorific Value, LDZ(EA)","39.3000","26/02/2021 10:33:26",""
"25/02/2021 10:30:21","25/02/2021","Calorific Value, LDZ(EA)","39.3000","25/02/2021 10:33:32",""
"25/02/2021 10:30:21","24/02/2021","Calorific Value, LDZ(EA)","39.3000","25/02/2021 10:33:32",""
"24/02/2021 10:30:09","24/02/2021","Calorific Value, LDZ(EA)","39.4000","24/02/2021 10:33:21",""
"24/02/2021 10:30:09","23/02/2021","Calorific Value, LDZ(EA)","39.4000","24/02/2021 10:33:21",""
"23/02/2021 10:30:09","23/02/2021","Calorific Value, LDZ(EA)","39.4000","23/02/2021 10:33:02",""
"23/02/2021 10:30:09","22/02/2021","Calorific Value, LDZ(EA)","39.5000","23/02/2021 10:33:02",""
"22/02/2021 10:30:11","22/02/2021","Calorific Value, LDZ(EA)","39.7000","22/02/2021 10:33:27",""
"22/02/2021 10:30:11","21/02/2021","Calorific Value, LDZ(EA)","39.7000","22/02/2021 10:33:27",""
"21/02/2021 10:30:07","21/02/2021","Calorific Value, LDZ(EA)","39.6000","21/02/2021 10:33:05",""
"21/02/2021 10:30:07","20/02/2021","Calorific Value, LDZ(EA)","39.6000","21/02/2021 10:33:05",""
"20/02/2021 10:30:07","20/02/2021","Calorific Value, LDZ(EA)","39.6000","20/02/2021 10:33:03",""
"20/02/2021 10:30:07","19/02/2021","Calorific Value, LDZ(EA)","39.3000","20/02/2021 10:33:03",""
"19/02/2021 10:30:07","19/02/2021","Calorific Value, LDZ(EA)","39.2000","19/02/2021 10:32:58",""
"19/02/2021 10:30:07","18/02/2021","Calorific Value, LDZ(EA)","39.2000","19/02/2021 10:32:58",""
"18/02/2021 10:30:15","18/02/2021","Calorific Value, LDZ(EA)","39.2000","18/02/2021 10:33:06",""
"18/02/2021 10:30:15","17/02/2021","Calorific Value, LDZ(EA)","39.1000","18/02/2021 10:33:06",""
"17/02/2021 10:30:17","17/02/2021","Calorific Value, LDZ(EA)","39.2000","17/02/2021 10:33:11",""
"17/02/2021 10:30:17","16/02/2021","Calorific Value, LDZ(EA)","39.2000","17/02/2021 10:33:11",""
"16/02/2021 10:30:12","16/02/2021","Calorific Value, LDZ(EA)","39.3000","16/02/2021 10:34:03",""
"16/02/2021 10:30:12","15/02/2021","Calorific Value, LDZ(EA)","39.3000","16/02/2021 10:34:03",""
"15/02/2021 10:30:19","15/02/2021","Calorific Value, LDZ(EA)","39.3000","15/02/2021 10:34:03",""
"15/02/2021 10:30:19","14/02/2021","Calorific Value, LDZ(EA)","39.3000","15/02/2021 10:34:03",""
"14/02/2021 10:30:13","14/02/2021","Calorific Value, LDZ(EA)","39.4000","14/02/2021 10:33:40",""
"14/02/2021 10:30:13","13/02/2021","Calorific Value, LDZ(EA)","39.2000","14/02/2021 10:33:40",""
"13/02/2021 10:30:10","13/02/2021","Calorific Value, LDZ(EA)","39.2000","13/02/2021 10:34:20",""
"13/02/2021 10:30:10","12/02/2021","Calorific Value, LDZ(EA)","39.0000","13/02/2021 10:34:20",""
"12/02/2021 10:30:23","12/02/2021","Calorific Value, LDZ(EA)","38.8000","12/02/2021 10:33:32",""
"12/02/2021 10:30:23","11/02/2021","Calorific Value, LDZ(EA)","38.8000","12/02/2021 10:33:32",""
"11/02/2021 10:30:10","11/02/2021","Calorific Value, LDZ(EA)","38.8000","11/02/2021 10:33:32",""
"11/02/2021 10:30:10","10/02/2021","Calorific Value, LDZ(EA)","38.9000","11/02/2021 10:33:32",""
"10/02/2021 10:30:09","10/02/2021","Calorific Value, LDZ(EA)","39.0000","10/02/2021 10:34:16",""
"10/02/2021 10:30:09","09/02/2021","Calorific Value, LDZ(EA)","39.0000","10/02/2021 10:34:16",""
"09/02/2021 10:30:14","09/02/2021","Calorific Value, LDZ(EA)","39.2000","09/02/2021 10:34:10",""
"09/02/2021 10:30:14","08/02/2021","Calorific Value, LDZ(EA)","39.1000","09/02/2021 10:34:10",""
"08/02/2021 10:30:20","08/02/2021","Calorific Value, LDZ(EA)","39.2000","08/02/2021 10:33:50",""
"08/02/2021 10:30:20","07/02/2021","Calorific Value, LDZ(EA)","39.1000","08/02/2021 10:33:50",""
"07/02/2021 10:30:18","07/02/2021","Calorific Value, LDZ(EA)","39.0000","07/02/2021 10:33:52",""
"07/02/2021 10:30:18","06/02/2021","Calorific Value, LDZ(EA)","39.1000","07/02/2021 10:33:52",""
"06/02/2021 10:30:08","06/02/2021","Calorific Value, LDZ(EA)","39.1000","06/02/2021 10:34:29",""
"06/02/2021 10:30:08","05/02/2021","Calorific Value, LDZ(EA)","39.1000","06/02/2021 10:34:29",""
"05/02/2021 10:30:19","05/02/2021","Calorific Value, LDZ(EA)","39.2000","05/02/2021 10:33:42",""
"05/02/2021 10:30:19","04/02/2021","Calorific Value, LDZ(EA)","39.1000","05/02/2021 10:33:42",""
"04/02/2021 10:30:20","04/02/2021","Calorific Value, LDZ(EA)","39.2000","04/02/2021 10:33:45",""
"04/02/2021 10:30:20","03/02/2021","Calorific Value, LDZ(EA)","39.1000","04/02/2021 10:33:45",""
"03/02/2021 10:30:20","03/02/2021","Calorific Value, LDZ(EA)","39.2000","03/02/2021 10:33:49",""
"03/02/2021 10:30:20","02/02/2021","Calorific Value, LDZ(EA)","39.1000","03/02/2021 10:33:49",""
"02/02/2021 10:30:10","02/02/2021","Calorific Value, LDZ(EA)","39.2000","02/02/2021 10:34:09",""
"02/02/2021 10:30:10","01/02/2021","Calorific Value, LDZ(EA)","39.1000","02/02/2021 10:34:09",""
"01/02/2021 10:30:19","01/02/2021","Calorific Value, LDZ(EA)","39.0000","01/02/2021 10:33:23",""
"01/02/2021 10:30:19","31/01/2021","Calorific Value, LDZ(EA)","39.0000","01/02/2021 10:33:23",""
"31/01/2021 10:30:15","31/01/2021","Calorific Value, LDZ(EA)","39.0000","31/01/2021 10:33:47",""
"31/01/2021 10:30:15","30/01/2021","Calorific Value, LDZ(EA)","39.1000","31/01/2021 10:33:47",""
"30/01/2021 10:30:18","30/01/2021","Calorific Value, LDZ(EA)","39.2000","30/01/2021 10:33:34",""
"30/01/2021 10:30:18","29/01/2021","Calorific Value, LDZ(EA)","39.3000","30/01/2021 10:33:34",""
"29/01/2021 10:30:14","29/01/2021","Calorific Value, LDZ(EA)","39.3000","29/01/2021 10:33:49",""
"29/01/2021 10:30:14","28/01/2021","Calorific Value, LDZ(EA)","39.2000","29/01/2021 10:33:49",""
"28/01/2021 10:30:22","28/01/2021","Calorific Value, LDZ(EA)","39.1000","28/01/2021 10:34:03",""
"28/01/2021 10:30:22","27/01/2021","Calorific Value, LDZ(EA)","39.2000","28/01/2021 10:34:03",""
"27/01/2021 10:30:14","27/01/2021","Calorific Value, LDZ(EA)","39.1000","27/01/2021 10:33:32",""
"27/01/2021 10:30:14","26/01/2021","Calorific Value, LDZ(EA)","39.1000","27/01/2021 10:33:32",""
"26/01/2021 10:30:18","26/01/2021","Calorific Value, LDZ(EA)","39.0000","26/01/2021 10:33:32",""
"26/01/2021 10:30:18","25/01/2021","Calorific Value, LDZ(EA)","39.1000","26/01/2021 10:33:32",""
"25/01/2021 10:30:19","25/01/2021","Calorific Value, LDZ(EA)","39.1000","25/01/2021 10:33:23",""
"25/01/2021 10:30:19","24/01/2021","Calorific Value, LDZ(EA)","39.1000","25/01/2021 10:33:23",""
"24/01/2021 10:30:08","24/01/2021","Calorific Value, LDZ(EA)","39.1000","24/01/2021 10:34:00",""
"24/01/2021 10:30:08","23/01/2021","Calorific Value, LDZ(EA)","39.2000","24/01/2021 10:34:00",""
"23/01/2021 10:30:22","23/01/2021","Calorific Value, LDZ(EA)","39.2000","23/01/2021 10:33:24",""
"23/01/2021 10:30:22","22/01/2021","Calorific Value, LDZ(EA)","39.1000","23/01/2021 10:33:24",""
"22/01/2021 10:30:08","22/01/2021","Calorific Value, LDZ(EA)","39.1000","22/01/2021 10:33:40",""
"22/01/2021 10:30:08","21/01/2021","Calorific Value, LDZ(EA)","39.0000","22/01/2021 10:33:40",""
"21/01/2021 10:30:21","21/01/2021","Calorific Value, LDZ(EA)","39.0000","21/01/2021 10:33:21",""
"21/01/2021 10:30:21","20/01/2021","Calorific Value, LDZ(EA)","39.0000","21/01/2021 10:33:21",""
"20/01/2021 10:30:17","20/01/2021","Calorific Value, LDZ(EA)","39.0000","20/01/2021 10:34:04",""
"20/01/2021 10:30:17","19/01/2021","Calorific Value, LDZ(EA)","39.0000","20/01/2021 10:34:04",""
"19/01/2021 10:30:21","19/01/2021","Calorific Value, LDZ(EA)","39.0000","19/01/2021 10:33:39",""
"19/01/2021 10:30:21","18/01/2021","Calorific Value, LDZ(EA)","39.0000","19/01/2021 10:33:39",""
"18/01/2021 10:30:18","18/01/2021","Calorific Value, LDZ(EA)","39.1000","18/01/2021 10:33:53",""
"18/01/2021 10:30:18","17/01/2021","Calorific Value, LDZ(EA)","39.1000","18/01/2021 10:33:53",""
"17/01/2021 10:30:20","17/01/2021","Calorific Value, LDZ(EA)","39.1000","17/01/2021 10:33:41",""
"17/01/2021 10:30:20","16/01/2021","Calorific Value, LDZ(EA)","39.1000","17/01/2021 10:33:41",""
"16/01/2021 10:30:11","16/01/2021","Calorific Value, LDZ(EA)","39.0000","16/01/2021 10:33:28",""
"16/01/2021 10:30:11","15/01/2021","Calorific Value, LDZ(EA)","38.9000","16/01/2021 10:33:28",""
"15/01/2021 10:30:12","15/01/2021","Calorific Value, LDZ(EA)","38.9000","15/01/2021 10:36:50",""
"15/01/2021 10:30:12","14/01/2021","Calorific Value, LDZ(EA)","38.9000","15/01/2021 10:36:50",""
"14/01/2021 10:30:17","14/01/2021","Calorific Value, LDZ(EA)","38.9000","14/01/2021 10:35:49",""
"14/01/2021 10:30:17","13/01/2021","Calorific Value, LDZ(EA)","38.9000","14/01/2021 10:35:49",""
"13/01/2021 10:30:19","13/01/2021","Calorific Value, LDZ(EA)","39.0000","13/01/2021 10:35:21",""
"13/01/2021 10:30:19","12/01/2021","Calorific Value, LDZ(EA)","39.0000","13/01/2021 10:35:21",""
"12/01/2021 10:30:13","12/01/2021","Calorific Value, LDZ(EA)","39.0000","12/01/2021 10:35:47",""
"12/01/2021 10:30:13","11/01/2021","Calorific Value, LDZ(EA)","38.9000","12/01/2021 10:35:47",""
"11/01/2021 10:30:10","11/01/2021","Calorific Value, LDZ(EA)","38.9000","11/01/2021 10:36:17",""
"11/01/2021 10:30:10","10/01/2021","Calorific Value, LDZ(EA)","39.0000","11/01/2021 10:36:17",""
"10/01/2021 10:30:11","10/01/2021","Calorific Value, LDZ(EA)","39.0000","10/01/2021 10:36:13",""
"10/01/2021 10:30:11","09/01/2021","Calorific Value, LDZ(EA)","38.8000","10/01/2021 10:36:13",""
"09/01/2021 10:30:19","09/01/2021","Calorific Value, LDZ(EA)","38.8000","09/01/2021 10:34:35",""
"09/01/2021 10:30:19","08/01/2021","Calorific Value, LDZ(EA)","38.8000","09/01/2021 10:34:35",""
"08/01/2021 10:30:21","08/01/2021","Calorific Value, LDZ(EA)","38.9000","08/01/2021 10:33:27",""
"08/01/2021 10:30:21","07/01/2021","Calorific Value, LDZ(EA)","38.8000","08/01/2021 10:33:27",""
"07/01/2021 10:30:20","07/01/2021","Calorific Value, LDZ(EA)","38.9000","07/01/2021 10:33:51",""
"07/01/2021 10:30:20","06/01/2021","Calorific Value, LDZ(EA)","39.0000","07/01/2021 10:33:51",""
"06/01/2021 10:30:24","06/01/2021","Calorific Value, LDZ(EA)","39.0000","06/01/2021 10:35:53",""
"06/01/2021 10:30:24","05/01/2021","Calorific Value, LDZ(EA)","39.0000","06/01/2021 10:35:53",""
"05/01/2021 16:00:16","02/01/2021","Calorific Value, LDZ(EA)","38.9000","05/01/2021 16:04:20",""
"05/01/2021 10:30:08","05/01/2021","Calorific Value, LDZ(EA)","39.0000","05/01/2021 10:33:41",""
"05/01/2021 10:30:08","04/01/2021","Calorific Value, LDZ(EA)","38.9000","05/01/2021 10:33:41",""
"04/01/2021 10:45:00","03/01/2021","Calorific Value, LDZ(EA)","38.9000","08/01/2021 11:22:09",""
"04/01/2021 10:30:13","04/01/2021","Calorific Value, LDZ(EA)","38.9000","04/01/2021 10:33:21",""
"04/01/2021 10:30:13","03/01/2021","Calorific Value, LDZ(EA)","39.1000","04/01/2021 10:33:21",""
"03/01/2021 10:30:20","03/01/2021","Calorific Value, LDZ(EA)","39.0000","03/01/2021 10:34:18",""
"03/01/2021 10:30:20","02/01/2021","Calorific Value, LDZ(EA)","39.1000","03/01/2021 10:34:18",""
"02/01/2021 10:30:18","02/01/2021","Calorific Value, LDZ(EA)","39.0000","02/01/2021 10:33:55",""
"02/01/2021 10:30:18","01/01/2021","Calorific Value, LDZ(EA)","39.1000","02/01/2021 10:33:55",""
"01/01/2021 21:00:09","01/01/2021","Calorific Value, LDZ(EA)","39.1000","01/01/2021 21:57:41",""
"01/01/2021 21:00:09","31/12/2020","Calorific Value, LDZ(EA)","39.1000","01/01/2021 21:57:41",""
